…
``` r
stations_temp <- station_medians[station_medians$median_temp == national_medians$median_temp, "USAFID"]
stations_windsp <- station_medians[station_medians$median_windsp == national_medians$median_windsp, "USAFID"]
stations_pressure <- station_medians[station_medians$median_pressure == national_medians$median_pressure, "USAFID"]

list(
  temp_median_station = stations_temp,
  temp_median_windsp = stations_windsp,
  temp_median_pressure = stations_pressure
)
```

    ## $temp_median_station
    ## # A tibble: 45 × 1
    ##    USAFID
    ##     <int>
    ##  1 722180
    ##  2 722196
    ##  3 722197
    ##  4 723075
    ##  5 723086
    ##  6 723110
    ##  7 723119
    ##  8 723190
    ##  9 723194
    ## 10 723200
    ## # ℹ 35 more rows
    ## 
    ## $temp_median_windsp
    ## # A tibble: 334 × 1
    ##    USAFID
    ##     <int>
    ##  1 720306
    ##  2 720333
    ##  3 720377
    ##  4 720379
    ##  5 720652
    ##  6 722011
    ##  7 722020
    ##  8 722026
    ##  9 722029
    ## 10 722038
    ## # ℹ 324 more rows
    ## 
    ## $temp_median_pressure
    ## # A tibble: 23 × 1
    ##    USAFID
    ##     <int>
    ##  1 720394
    ##  2 722085
    ##  3 722348
    ##  4 723020
    ##  5 723119
    ##  6 723124
    ##  7 723270
    ##  8 723658
    ##  9 724010
    ## 10 724035
    ## # ℹ 13 more rows
…
close_station_tempwind <- station_medians |>
  group_by(state) |>
  filter(edistance == min(edistance)) |>
  ungroup()

close_station_tempwind
```

    ## # A tibble: 60 × 8
    ##    USAFID median_temp median_windsp median_pressure   lat   lon state edistance
    ##     <int>       <dbl>         <dbl>           <dbl> <dbl> <dbl> <chr>     <dbl>
    ##  1 720708        23.3           2.6           1004   32.8 -88.8 MS        1.68 
    ##  2 722151        18.9           3.1           1010.  41.4 -71.8 RI        2.8  
    ##  3 722180        21.7           3.1           1011.  33.4 -82.0 GA        0    
    ##  4 722285        22             2.6           1012.  34.0 -86.1 AL        0.583
    ##  5 722488        25.6           2.1           1012.  32.3 -91.0 LA        4.03 
    ##  6 723087        22             3.1           1012.  37.1 -76.6 VA        0.300
    ##  7 723119        21.7           3.1           1012.  34.8 -82.4 SC        0    
    ##  8 723190        21.7           3.1           1011.  34.5 -82.7 SC        0    
    ##  9 723194        21.7           3.1           1012.  35.0 -80.6 NC        0    
    ## 10 723231        22             2.6           1011   34.7 -86.7 AL        0.583
    ## # ℹ 50 more rows
…
# identify the closest station in each state
close_station_geo <- station_medians_with_state_mean |>
  group_by(state) |>
  filter(edistance_to_median == min(edistance_to_median)) |>
  ungroup()

close_station_geo
```

    ## # A tibble: 48 × 12
    ##    state USAFID median_temp median_windsp median_pressure   lat    lon edistance
    ##    <chr>  <int>       <dbl>         <dbl>           <dbl> <dbl>  <dbl>     <dbl>
    ##  1 AL    722300        22.8           2.1           1011.  33.2  -86.8      1.49
    ##  2 AR    723429        23.3           2.1           1011.  35.3  -93.1      1.89
    ##  3 AZ    722783        30.6           2.6           1007.  33.5 -112.       8.91
    ##  4 CA    745046        21.7           3.6           1012.  37.0 -120.       0.5 
    ##  5 CO    745310        14.8           4.1           1013.  39.0 -105.       6.97
    ##  6 CT    725027        20             3.1           1010.  41.5  -72.8      1.7 
    ##  7 DE    724088        21             4.1           1011.  39.1  -75.5      1.22
    ##  8 FL    722213        25             3.1           1013.  28.8  -81.8      3.3 
    ##  9 GA    722175        22.8           3.1           1011.  32.6  -83.6      1.10
    ## 10 IA    725460        22.8           3.6           1012.  41.5  -93.7      1.21
    ## # ℹ 38 more rows
    ## # ℹ 4 more variables: STATE <chr>, median_lat <dbl>, median_lon <dbl>,
    ## #   edistance_to_median <dbl>
…
